<svg width="122" height="37" viewBox="0 0 122 37" fill="none" xmlns="http://www.w3.org/2000/svg">
    <line x1="6" y1="0.5" x2="113" y2="0.5" stroke="black"/>
    <line x1="6" y1="36.5" x2="113" y2="36.5" stroke="black"/>
    <rect x="51.289" y="19.5676" width="5" height="5" transform="rotate(-45 51.289 19.5676)" stroke="black"/>
    <path d="M3.89986 24H0.490767V12.3636H4.1044C5.21425 12.3636 6.16312 12.5947 6.95099 13.0568C7.74266 13.5189 8.34872 14.1818 8.76918 15.0455C9.18963 15.9091 9.39986 16.9451 9.39986 18.1534C9.39986 19.3731 9.18395 20.4205 8.75213 21.2955C8.3241 22.1667 7.6991 22.8352 6.87713 23.3011C6.05895 23.767 5.06652 24 3.89986 24ZM1.55327 23.0455H3.83736C4.83736 23.0455 5.67448 22.8485 6.34872 22.4545C7.02296 22.0606 7.52865 21.4981 7.86577 20.767C8.20289 20.036 8.37145 19.1648 8.37145 18.1534C8.36766 17.1496 8.20099 16.286 7.87145 15.5625C7.54569 14.839 7.06084 14.2841 6.4169 13.8977C5.77675 13.5114 4.98509 13.3182 4.0419 13.3182H1.55327V23.0455ZM15.157 24.1818C14.4032 24.1818 13.7365 23.9905 13.157 23.608C12.5812 23.2254 12.1304 22.697 11.8047 22.0227C11.4789 21.3447 11.3161 20.5625 11.3161 19.6761C11.3161 18.7822 11.4789 17.9962 11.8047 17.3182C12.1304 16.6364 12.5812 16.1061 13.157 15.7273C13.7365 15.3447 14.4032 15.1534 15.157 15.1534C15.9107 15.1534 16.5755 15.3447 17.1513 15.7273C17.727 16.1098 18.1778 16.6402 18.5036 17.3182C18.8331 17.9962 18.9979 18.7822 18.9979 19.6761C18.9979 20.5625 18.835 21.3447 18.5092 22.0227C18.1835 22.697 17.7308 23.2254 17.1513 23.608C16.5755 23.9905 15.9107 24.1818 15.157 24.1818ZM15.157 23.2557C15.763 23.2557 16.2763 23.0928 16.6967 22.767C17.1172 22.4413 17.4354 22.0076 17.6513 21.4659C17.871 20.9242 17.9808 20.3277 17.9808 19.6761C17.9808 19.0246 17.871 18.4261 17.6513 17.8807C17.4354 17.3352 17.1172 16.8977 16.6967 16.5682C16.2763 16.2386 15.763 16.0739 15.157 16.0739C14.5547 16.0739 14.0414 16.2386 13.6172 16.5682C13.1967 16.8977 12.8767 17.3352 12.657 17.8807C12.4411 18.4261 12.3331 19.0246 12.3331 19.6761C12.3331 20.3277 12.4411 20.9242 12.657 21.4659C12.8767 22.0076 13.1967 22.4413 13.6172 22.767C14.0376 23.0928 14.5509 23.2557 15.157 23.2557ZM24.6101 24.1818C23.8563 24.1818 23.1896 23.9905 22.6101 23.608C22.0343 23.2254 21.5836 22.697 21.2578 22.0227C20.9321 21.3447 20.7692 20.5625 20.7692 19.6761C20.7692 18.7822 20.9321 17.9962 21.2578 17.3182C21.5836 16.6364 22.0343 16.1061 22.6101 15.7273C23.1896 15.3447 23.8563 15.1534 24.6101 15.1534C25.3639 15.1534 26.0286 15.3447 26.6044 15.7273C27.1802 16.1098 27.6309 16.6402 27.9567 17.3182C28.2862 17.9962 28.451 18.7822 28.451 19.6761C28.451 20.5625 28.2881 21.3447 27.9624 22.0227C27.6366 22.697 27.1839 23.2254 26.6044 23.608C26.0286 23.9905 25.3639 24.1818 24.6101 24.1818ZM24.6101 23.2557C25.2161 23.2557 25.7294 23.0928 26.1499 22.767C26.5703 22.4413 26.8885 22.0076 27.1044 21.4659C27.3241 20.9242 27.4339 20.3277 27.4339 19.6761C27.4339 19.0246 27.3241 18.4261 27.1044 17.8807C26.8885 17.3352 26.5703 16.8977 26.1499 16.5682C25.7294 16.2386 25.2161 16.0739 24.6101 16.0739C24.0078 16.0739 23.4946 16.2386 23.0703 16.5682C22.6499 16.8977 22.3298 17.3352 22.1101 17.8807C21.8942 18.4261 21.7862 19.0246 21.7862 19.6761C21.7862 20.3277 21.8942 20.9242 22.1101 21.4659C22.3298 22.0076 22.6499 22.4413 23.0703 22.767C23.4908 23.0928 24.004 23.2557 24.6101 23.2557ZM30.6712 24V15.2727H31.6541V16.6136H31.728C31.9022 16.1742 32.2053 15.8201 32.6371 15.5511C33.0727 15.2784 33.5651 15.142 34.1143 15.142C34.1977 15.142 34.2905 15.1439 34.3928 15.1477C34.495 15.1515 34.5803 15.1553 34.6484 15.1591V16.1875C34.603 16.1799 34.5234 16.1686 34.4098 16.1534C34.2962 16.1383 34.1731 16.1307 34.0405 16.1307C33.5859 16.1307 33.1806 16.2273 32.8246 16.4205C32.4723 16.6098 32.1939 16.8731 31.9893 17.2102C31.7848 17.5473 31.6825 17.9318 31.6825 18.3636V24H30.6712ZM42.2379 17.1875L41.3118 17.4489C41.2209 17.1875 41.0921 16.9508 40.9254 16.7386C40.7588 16.5265 40.541 16.358 40.272 16.233C40.0069 16.108 39.6773 16.0455 39.2834 16.0455C38.6925 16.0455 38.2076 16.1856 37.8288 16.4659C37.45 16.7462 37.2607 17.108 37.2607 17.5511C37.2607 17.9261 37.3894 18.2311 37.647 18.4659C37.9084 18.697 38.3099 18.8807 38.8516 19.017L40.1697 19.3409C40.9008 19.5189 41.4482 19.8011 41.8118 20.1875C42.1792 20.5739 42.3629 21.0587 42.3629 21.642C42.3629 22.1345 42.2266 22.572 41.9538 22.9545C41.6811 23.3371 41.3004 23.6383 40.8118 23.858C40.3269 24.0739 39.7644 24.1818 39.1243 24.1818C38.272 24.1818 37.5694 23.9905 37.0163 23.608C36.4633 23.2216 36.1091 22.6648 35.9538 21.9375L36.9254 21.6989C37.0504 22.2178 37.2947 22.6098 37.6584 22.875C38.0258 23.1402 38.5088 23.2727 39.1072 23.2727C39.7777 23.2727 40.3137 23.1231 40.7152 22.8239C41.1167 22.5208 41.3175 22.142 41.3175 21.6875C41.3175 21.3352 41.2 21.0398 40.9652 20.8011C40.7304 20.5587 40.3743 20.3807 39.897 20.267L38.4709 19.9261C37.7133 19.7443 37.1527 19.4564 36.7891 19.0625C36.4254 18.6686 36.2436 18.1799 36.2436 17.5966C36.2436 17.1155 36.3743 16.6932 36.6357 16.3295C36.897 15.9621 37.2569 15.6742 37.7152 15.4659C38.1735 15.2576 38.6963 15.1534 39.2834 15.1534C40.0826 15.1534 40.7209 15.3352 41.1982 15.6989C41.6792 16.0587 42.0258 16.5549 42.2379 17.1875ZM67.3047 24H66.1911L70.424 12.3636H71.5604L75.7933 24H74.6797L71.032 13.7443H70.9524L67.3047 24ZM68.1058 19.5398H73.8786V20.4943H68.1058V19.5398ZM80.907 27.4545C80.3123 27.4545 79.7914 27.3769 79.3445 27.2216C78.8975 27.0701 78.5206 26.8617 78.2138 26.5966C77.907 26.3314 77.6683 26.0341 77.4979 25.7045L78.3274 25.1591C78.4524 25.3788 78.6191 25.5947 78.8274 25.8068C79.0395 26.0189 79.3142 26.1951 79.6513 26.3352C79.9922 26.4754 80.4107 26.5455 80.907 26.5455C81.6797 26.5455 82.3028 26.3523 82.7763 25.9659C83.2536 25.5795 83.4922 24.9792 83.4922 24.1648V22.1989H83.4013C83.2839 22.464 83.1153 22.7292 82.8956 22.9943C82.6759 23.2557 82.388 23.4735 82.032 23.6477C81.6797 23.822 81.2422 23.9091 80.7195 23.9091C80.0225 23.9091 79.4032 23.7367 78.8615 23.392C78.3236 23.0473 77.8994 22.5549 77.5888 21.9148C77.282 21.2708 77.1286 20.5038 77.1286 19.6136C77.1286 18.7311 77.2782 17.9545 77.5774 17.2841C77.8804 16.6136 78.3028 16.0909 78.8445 15.7159C79.3861 15.3409 80.0168 15.1534 80.7365 15.1534C81.2706 15.1534 81.7138 15.2481 82.0661 15.4375C82.4183 15.6231 82.7005 15.8542 82.9126 16.1307C83.1286 16.4072 83.2971 16.6761 83.4183 16.9375H83.5206V15.2727H84.5092V24.2273C84.5092 24.9659 84.352 25.5739 84.0376 26.0511C83.7232 26.5284 83.2952 26.8807 82.7536 27.108C82.2119 27.339 81.5964 27.4545 80.907 27.4545ZM80.8388 22.983C81.3994 22.983 81.8786 22.8485 82.2763 22.5795C82.674 22.3068 82.9789 21.9167 83.1911 21.4091C83.4032 20.9015 83.5092 20.2973 83.5092 19.5966C83.5092 18.9148 83.4051 18.3106 83.1967 17.7841C82.9884 17.2538 82.6854 16.8371 82.2876 16.5341C81.8937 16.2273 81.4107 16.0739 80.8388 16.0739C80.2554 16.0739 79.763 16.2311 79.3615 16.5455C78.96 16.8598 78.657 17.2841 78.4524 17.8182C78.2479 18.3485 78.1456 18.9413 78.1456 19.5966C78.1456 20.2633 78.2498 20.8523 78.4581 21.3636C78.6664 21.8712 78.9714 22.2689 79.3729 22.5568C79.7744 22.8409 80.263 22.983 80.8388 22.983ZM90.7152 24.1818C89.9008 24.1818 89.1963 23.9924 88.6016 23.6136C88.0069 23.2311 87.5466 22.7027 87.2209 22.0284C86.8989 21.3504 86.7379 20.5701 86.7379 19.6875C86.7379 18.8087 86.8989 18.0284 87.2209 17.3466C87.5466 16.661 87.9955 16.125 88.5675 15.7386C89.1432 15.3485 89.808 15.1534 90.5618 15.1534C91.0353 15.1534 91.4917 15.2405 91.9311 15.4148C92.3705 15.5852 92.7644 15.8485 93.1129 16.2045C93.4652 16.5568 93.7436 17.0019 93.9482 17.5398C94.1527 18.0739 94.255 18.7064 94.255 19.4375V19.9375H87.4368V19.0455H93.2209C93.2209 18.4848 93.1072 17.9811 92.88 17.5341C92.6565 17.0833 92.344 16.7273 91.9425 16.4659C91.5447 16.2045 91.0845 16.0739 90.5618 16.0739C90.0088 16.0739 89.522 16.2216 89.1016 16.517C88.6811 16.8125 88.3516 17.2027 88.1129 17.6875C87.8781 18.1723 87.7588 18.7027 87.755 19.2784V19.8125C87.755 20.5057 87.8743 21.1117 88.1129 21.6307C88.3554 22.1458 88.6982 22.5455 89.1413 22.8295C89.5845 23.1136 90.1091 23.2557 90.7152 23.2557C91.1281 23.2557 91.4898 23.1913 91.8004 23.0625C92.1148 22.9337 92.3781 22.7614 92.5902 22.5455C92.8061 22.3258 92.969 22.0852 93.0788 21.8239L94.0391 22.1364C93.9065 22.5038 93.6887 22.8428 93.3857 23.1534C93.0864 23.464 92.7114 23.714 92.2607 23.9034C91.8137 24.089 91.2985 24.1818 90.7152 24.1818ZM97.495 18.5455V24H96.4837V15.2727H97.4666V16.642H97.5575C97.7621 16.1951 98.0803 15.8371 98.5121 15.5682C98.9477 15.2955 99.4856 15.1591 100.126 15.1591C100.713 15.1591 101.228 15.2822 101.671 15.5284C102.118 15.7708 102.465 16.1288 102.711 16.6023C102.961 17.0758 103.086 17.6572 103.086 18.3466V24H102.075V18.4091C102.075 17.6932 101.874 17.1269 101.472 16.7102C101.075 16.2936 100.54 16.0852 99.87 16.0852C99.4117 16.0852 99.0045 16.1837 98.6484 16.3807C98.2924 16.5777 98.0102 16.8617 97.8018 17.233C97.5973 17.6004 97.495 18.0379 97.495 18.5455ZM109.158 24.1818C108.378 24.1818 107.698 23.9867 107.119 23.5966C106.543 23.2064 106.096 22.6723 105.778 21.9943C105.46 21.3163 105.3 20.5436 105.3 19.6761C105.3 18.8011 105.461 18.0227 105.783 17.3409C106.109 16.6591 106.56 16.125 107.136 15.7386C107.711 15.3485 108.38 15.1534 109.141 15.1534C109.725 15.1534 110.253 15.267 110.727 15.4943C111.2 15.7178 111.59 16.0341 111.897 16.4432C112.208 16.8485 112.403 17.322 112.482 17.8636H111.46C111.353 17.3712 111.098 16.9508 110.692 16.6023C110.291 16.25 109.78 16.0739 109.158 16.0739C108.602 16.0739 108.109 16.2254 107.681 16.5284C107.253 16.8277 106.918 17.2462 106.675 17.7841C106.437 18.3182 106.317 18.9375 106.317 19.642C106.317 20.3504 106.435 20.9773 106.67 21.5227C106.905 22.0644 107.234 22.4886 107.658 22.7955C108.086 23.1023 108.586 23.2557 109.158 23.2557C109.545 23.2557 109.897 23.1837 110.215 23.0398C110.537 22.892 110.806 22.6837 111.022 22.4148C111.242 22.1458 111.389 21.8258 111.465 21.4545H112.488C112.412 21.9811 112.225 22.4508 111.925 22.8636C111.63 23.2727 111.246 23.5947 110.772 23.8295C110.302 24.0644 109.764 24.1818 109.158 24.1818ZM115.36 27.2727C115.159 27.2727 114.972 27.2538 114.798 27.2159C114.623 27.178 114.485 27.1364 114.383 27.0909L114.656 26.1989C115 26.3049 115.307 26.3428 115.576 26.3125C115.845 26.286 116.084 26.1648 116.292 25.9489C116.5 25.7367 116.686 25.411 116.849 24.9716L117.167 24.0852L113.957 15.2727H115.053L117.644 22.6648H117.724L120.315 15.2727H121.411L117.718 25.3807C117.563 25.8011 117.371 26.1515 117.144 26.4318C116.917 26.7159 116.654 26.9261 116.354 27.0625C116.059 27.2027 115.728 27.2727 115.36 27.2727Z" fill="black"/>
</svg>
